…
<!-- -------------------------------------------------- -->

First, we’ll go through a round of *guided EDA*. Try to pay attention to
the high-level process we’re going through—after this guided round
you’ll be responsible for doing another cycle of EDA on your own!

### **q0** Perform your “first checks” on the dataset. What variables are in this dataset?

``` r
## TASK: Do your "first checks" here!
gapminder
```

    ## # A tibble: 1,704 × 6
    ##    country     continent  year lifeExp      pop gdpPercap
    ##    <fct>       <fct>     <int>   <dbl>    <int>     <dbl>
    ##  1 Afghanistan Asia       1952    28.8  8425333      779.
    ##  2 Afghanistan Asia       1957    30.3  9240934      821.
    ##  3 Afghanistan Asia       1962    32.0 10267083      853.
    ##  4 Afghanistan Asia       1967    34.0 11537966      836.
    ##  5 Afghanistan Asia       1972    36.1 13079460      740.
    ##  6 Afghanistan Asia       1977    38.4 14880372      786.
    ##  7 Afghanistan Asia       1982    39.9 12881816      978.
    ##  8 Afghanistan Asia       1987    40.8 13867957      852.
    ##  9 Afghanistan Asia       1992    41.7 16317921      649.
    ## 10 Afghanistan Asia       1997    41.8 22227415      635.
    ## # … with 1,694 more rows
…
``` r
gapminder %>%
  arrange(lifeExp)
```

    ## # A tibble: 1,704 × 6
    ##    country      continent  year lifeExp     pop gdpPercap
    ##    <fct>        <fct>     <int>   <dbl>   <int>     <dbl>
    ##  1 Rwanda       Africa     1992    23.6 7290203      737.
    ##  2 Afghanistan  Asia       1952    28.8 8425333      779.
    ##  3 Gambia       Africa     1952    30    284320      485.
    ##  4 Angola       Africa     1952    30.0 4232095     3521.
    ##  5 Sierra Leone Africa     1952    30.3 2143249      880.
    ##  6 Afghanistan  Asia       1957    30.3 9240934      821.
    ##  7 Cambodia     Asia       1977    31.2 6978607      525.
    ##  8 Mozambique   Africa     1952    31.3 6446316      469.
    ##  9 Sierra Leone Africa     1957    31.6 2295678     1004.
    ## 10 Burkina Faso Africa     1952    32.0 4469979      543.
    ## # … with 1,694 more rows
…
