…
    ## `summarise()` has grouped output by 'county'. You can override using the
    ## `.groups` argument.

``` r
maine_data_mapped
```

    ## # A tibble: 528,410 × 11
    ## # Groups:   county [16]
    ##    county      cases…¹ popul…² death…³ fips   long   lat order hole  piece group
    ##    <chr>         <dbl>   <dbl>   <dbl> <chr> <dbl> <dbl> <int> <lgl> <fct> <fct>
    ##  1 Androscogg…   6964.  107444    76.0 23001 -70.5  44.1     1 FALSE 1     2300…
    ##  2 Androscogg…   6964.  107444    76.0 23001 -70.4  44.2     2 FALSE 1     2300…
    ##  3 Androscogg…   6964.  107444    76.0 23001 -70.3  44.2     3 FALSE 1     2300…
    ##  4 Androscogg…   6964.  107444    76.0 23001 -70.3  44.4     4 FALSE 1     2300…
    ##  5 Androscogg…   6964.  107444    76.0 23001 -70.3  44.4     5 FALSE 1     2300…
    ##  6 Androscogg…   6964.  107444    76.0 23001 -70.2  44.5     6 FALSE 1     2300…
    ##  7 Androscogg…   6964.  107444    76.0 23001 -70.2  44.5     7 FALSE 1     2300…
    ##  8 Androscogg…   6964.  107444    76.0 23001 -70.1  44.5     8 FALSE 1     2300…
    ##  9 Androscogg…   6964.  107444    76.0 23001 -70.1  44.4     9 FALSE 1     2300…
    ## 10 Androscogg…   6964.  107444    76.0 23001 -70.1  44.4    10 FALSE 1     2300…
    ## # … with 528,400 more rows, and abbreviated variable names ¹​cases_per100k,
    ## #   ²​population, ³​deaths_per100k
…
